<?xml version="1.0" standalone="no"?>
<!DOCTYPE svg PUBLIC "-//W3C//DTD SVG 1.1//EN" "http://www.w3.org/Graphics/SVG/1.1/DTD/svg11.dtd">
<svg xmlns="http://www.w3.org/2000/svg">
<metadata>Copyright (C) 2023 by original authors @ fontello.com</metadata>
<defs>
<font id="fontello" horiz-adv-x="1000" >
<font-face font-family="fontello" font-weight="400" font-stretch="normal" units-per-em="1000" ascent="850" descent="-150" />
<missing-glyph horiz-adv-x="1000" />
<glyph glyph-name="arteinformado" unicode="&#xe800;" d="M387 82c102-19 52-22 174-14-11-8-30-12-43-15-45-10-104 7-131 29z m-104 45c13-9 10-10 20-20 30-27 42-30 70-49 7-4 5-3 8-5-73 11-80 54-98 74z m106-103l177-5c54 5 102 21 140 44 46 27 54 38 86 70 43 43 54 86 75 135-1-69-45-155-94-202-18-17-34-29-59-45-68-43-170-57-252-31-23 7-53 17-71 32 0 1-1 2-2 2z m372 287c-9-56-48-142-91-172-82-58-210-64-310-16-104 51-149 128-112 256 46 165 215 272 406 213 30-9 50-38 65-66 34-63 56-129 42-215z m-165-258c46 19 137 98 169 134 37 43 61 96 73 155 3 17 4 60 8 69 13-31 5-102-5-136-22-72-69-141-133-180-19-12-89-51-112-42z m-332 53c-48 22-106 112-121 173-19 75-12 167 27 234 5 8 3 5 8 11-8-42-19-47-20-116 0-42 7-80 20-116 16-46 35-67 44-91 6-18 8-32 17-49 9-16 18-32 25-46z m505 134c6 26 15 43 19 77 10 91-8 158-52 232 12-6 48-40 58-52 49-57 15-195-25-257z m-548 146c-2 132 120 257 254 285 40 9 112-17 137-40-112 13-184-7-259-59-74-50-101-108-132-186z m564 161c-9 4-30 22-44 32-16 10-32 17-48 27l-87 63c63-11 155-66 179-122z m-592-206c-26 56 1 165 34 223 10 19 17 27 29 43 24 33 91 62 135 65-13-10-27-13-43-24-109-77-152-168-155-307z m191 359c41 17 93 27 145 22 64-6 82-22 126-39-47 8-64 21-126 20-51-1-96-1-145-3z m66 46c-55-10-105-30-143-57l-106-91c-149-149-124-411 73-531 12-7 19-11 32-17 29-14 96-102 249-100 215 3 393 207 325 440-7 26-10 52-19 78-17 52-77 142-117 181-63 61-170 117-294 97z" horiz-adv-x="1000" />

<glyph glyph-name="ccgalega" unicode="&#xe801;" d="M368 166c0 0 0 0 0 0 0 0 0 0 0 0l0 0z m229-61c-3-15-13-27-25-36-13-8-29-13-45-11-8 1-16 5-20 13-4 6-4 13-4 20 17-1 34 2 50 7 17 5 32 14 45 24 1-6 1-11-1-17l0 0z m162-112c-2 20-10 39-24 53-16 15-36 23-57 26-10 2-19 3-28 3 4 9 6 17 7 27 0 34-18 49-33 66 3 3-50-72-131-72-83 0-123 68-125 70-8-12-14-24-17-38-4-19-4-40 1-59 7-22 19-42 35-59 22-23 51-40 83-48 20-5 42-6 62-2 28 6 53 20 78 32 15 8 31 16 48 18 16 2 32 0 46-6 14-7 25-17 34-29 7-8 12-16 17-25 3 14 5 28 4 43l0 0z m-135 445c0-69 0-139 0-208 0-9-1-19-3-28-7-24-22-47-42-62-24-20-54-31-84-31-24 0-47 5-68 16-22 12-41 30-53 53-8 14-13 30-13 46 0 71 0 143 0 214 19 0 202 0 263 0l0 0z m15-24c0 13 0 26 0 39-10 0-22 0-35 0-30 24-69 38-111 38-42 0-81-14-111-38-18 0-31 0-35 0 0-13 0-26 0-39-17-26-27-56-27-88 0-32 10-62 27-88 0-6 0-13 0-19 0-18 5-36 14-51 14-25 35-45 59-58 23-12 49-18 75-18 34 0 68 12 94 34 22 17 39 42 46 69 3 10 4 20 4 30 0 4 0 9 0 13 16 26 26 56 26 88 0 32-10 62-26 88l0 0z m-187-142c0-11 3-21 9-29 7-8 14-13 24-15 0-4 1-6 1-8 1-13-1-25-5-36-4-11-10-21-18-29 0 0-1 0-1-1 0-1 1-1 2-1l58 0c1 0 1 0 1 1 0 1 0 1 0 1-8 8-15 18-19 29-4 11-5 23-4 36 0 2 0 4 1 8 9 2 17 7 23 15 6 8 9 18 9 29l0 2c0 0 0 1-1 1l-78 0c-1 0-2-1-2-1l0-2z m81 34c0 0 0 0 0 1 0 20-18 37-40 37-23 0-41-17-41-37 0-1 0-1 0-1l81 0 0 0z m-47 112l0-45 15 0 0 45-15 0 0 0z m31-15l-46 0 0-15 46 0 0 15z m-113-6l0-44 16 0 0 44-16 0 0 0z m31-15l-46 0 0-14 46 0 0 14z m-34-68l0-45 15 0 0 45-15 0 0 0z m30-15l-45 0 0-15 45 0 0 15z m-17-71l0-44 15 0 0 44-15 0 0 0z m30-15l-45 0 0-15 45 0 0 15z m137 184l0-44-15 0 0 44 15 0 0 0z m-30-15l45 0 0-14-45 0 0 14z m34-68l0-45-16 0 0 45 16 0 0 0z m-31-15l46 0 0-15-46 0 0 15z m18-71l0-44-15 0 0 44 15 0 0 0z m-31-15l46 0 0-15-46 0 0 15z m-48 537c-6 0-12-5-12-11 0-6 6-11 12-11 6 0 11 5 11 11 0 6-5 11-11 11l0 0z m-55-101c0 0 20 10 55 10 35 0 54-10 54-10 0 0 1-5 1-7-2-4-4-6-4-6 0 0-16 10-51 10-35 0-52-9-52-9 0 0-2 3-3 5-1 3 0 7 0 7l0 0z m55-30c26 0 48 3 48 6 0 4-22 10-48 10-27 0-48-6-48-10 0-3 21-6 48-6l0 0z m66 92c-5 6-12 9-20 9-3 0-7-1-11-2-4 4-11 7-18 7-6 0-12-2-17-6-5 4-11 6-18 6-7 0-13-3-18-7-4 1-7 2-11 2-8 0-14-3-20-9-5-6-8-13-8-21 0-7 1-12 5-17l15-25 13 6-17 26c-2 4-3 8-3 10 0 4 1 8 4 11 3 3 7 5 11 5 2 0 3 0 3 0-1-4-1-8-1-11 0-6 1-11 3-15l14-26 15 0-17 32c-2 3-2 6-2 9 0 4 1 8 4 11 3 3 6 5 10 5 5 0 8-2 11-5l0-52 14 0 0 52c2 3 6 5 10 5 4 0 8-2 11-5 2-3 4-7 4-11 0-3-1-6-2-9l-17-32 15 0 14 26c2 4 3 9 3 15 0 3-1 7-2 11 1 0 2 0 3 0 5 0 9-2 12-5 2-3 4-7 4-11 0-2-1-6-3-10l-18-26 13-6 16 25c3 5 5 10 5 17 0 8-3 15-9 21l0 0z m-31-146c0-16-3-33-10-48-4-9-12-18-22-19-10-1-19 6-24 15-9 15-12 34-12 52l34 9 34-9 0 0z m217 9c-11-6-22-10-34-12-10 0-20-1-30 2-19 5-36 13-55 17-12 1-25 1-38 2-9 1-17 0-25 2-13 3-25 11-37 16-6 2-13 4-20 3-5-1-9-5-13-7-5 2-9 6-14 7-7 1-13-1-20-3-12-5-24-13-37-16-8-2-16-1-24-2-13-1-26-1-39-2-18-4-36-12-54-17-10-3-20-2-30-2-12 2-24 6-34 12 5-5 10-11 17-14 13-9 36-14 71-12 10 1 16 4 26 3 7 0 10-1 17-3-14-1-19-4-33-8-14-4-26-7-41-6-15 0-30 4-43 12 7-6 14-13 22-17 17-9 36-10 54-9 12 0 19 3 31 4 10 0 15-1 25-3-19-2-28-7-46-12-11-3-23-5-34-4-13 1-27 6-38 13 11-12 26-21 42-24 12-2 24-3 35-2 19 1 38 6 57 6 19 1 38-2 56-7 0 0 4-5 4-6l59 0c0 1 4 6 4 6 19 5 38 8 57 7 18 0 37-5 56-6 12-1 24 0 35 2 17 3 31 12 43 24-12-7-25-12-39-13-11-1-23 1-33 4-19 5-27 10-46 12 9 2 15 3 25 3 11-1 19-4 30-4 19-1 38 0 54 9 9 4 16 11 22 17-12-8-27-12-42-12-15-1-28 2-42 6-14 4-18 7-33 8 8 2 10 3 17 3 11 1 17-2 27-3 34-2 58 3 71 12 6 3 11 9 17 14l0 0z" horiz-adv-x="1000" />

<glyph glyph-name="linotype" unicode="&#xe802;" d="M125 474l0-492 500 0 0 228-264 0 0 264-236 0z m250 277l0-243-283 0 0-542 0-17 566 0 0 277 250 0 0 241-283 0 0 284-250 0z" horiz-adv-x="1000" />

<glyph glyph-name="myfonts" unicode="&#xe803;" d="M661 488c-45-54-57-140-109-186-86 48-9 208-19 295-43-86-56-202-106-280-110 8-48 176-61 272-24-51-34-105-45-159-12-57-17-148-57-189-72-72-300 6-231 114 31 48 165 29 167-38-28-17-85 12-118-8 34-36 87-66 133-49 47 18 56 141 72 212 11 52 30 196 83 201 87 8 65-159 61-235 13 40 30 81 45 129 16 52 30 164 98 110 51-41 12-171 8-243 38 29 35 124 83 133 84 15 57-127 38-186 31 22 26 93 68 95 28 1 42-40 46-68 27-225-100-474-277-493-51-5-131-8-136 65 37 3 61-19 102-19 195-1 238 249 258 439-30-5-42-128-84-133-73-8-30 165-19 220l0 1z" horiz-adv-x="1000" />

<glyph glyph-name="attach" unicode="&#xe804;" d="M1113 556q0-67-26-129t-74-110l-448-444-62 61 448 444q74 72 74 178 0 89-58 148t-148 58q-102 0-180-75l-493-489q-59-59-59-133 0-57 37-94t94-36q75 0 134 59l377 372q53 55 53 97 0 21-16 33t-38 12q-48 0-86-40l-340-336-61 61 339 336q66 66 148 66 58 0 100-37t42-94q0-78-79-159l-377-372q-84-84-196-84-93 0-155 61t-63 155q0 110 84 194l493 489q104 101 242 101 125 0 210-84t84-209z" horiz-adv-x="1113" />

<glyph glyph-name="mail-alt" unicode="&#xf0e0;" d="M1000 454v-443q0-37-26-63t-63-27h-822q-36 0-63 27t-26 63v443q25-27 56-49 202-137 278-192 32-24 51-37t53-27 61-13h2q28 0 61 13t53 27 51 37q95 68 278 192 32 22 56 49z m0 164q0-44-27-84t-68-69q-210-146-262-181-5-4-23-17t-30-22-29-18-32-15-28-5h-2q-12 0-27 5t-32 15-30 18-30 22-23 17q-51 35-147 101t-114 80q-35 23-65 64t-31 77q0 43 23 72t66 29h822q36 0 63-26t26-63z" horiz-adv-x="1000" />

<glyph glyph-name="instagram" unicode="&#xf16d;" d="M571 350q0 59-41 101t-101 42-101-42-42-101 42-101 101-42 101 42 41 101z m77 0q0-91-64-156t-155-64-156 64-64 156 64 156 156 64 155-64 64-156z m61 229q0-21-15-36t-37-15-36 15-15 36 15 36 36 15 37-15 15-36z m-280 123q-4 0-43 0t-59 0-54-2-57-5-40-11q-28-11-49-32t-33-49q-6-16-10-40t-6-58-1-53 0-59 0-43 0-43 0-59 1-53 6-58 10-40q12-28 33-49t49-32q16-6 40-11t57-5 54-2 59 0 43 0 42 0 59 0 54 2 58 5 39 11q28 11 50 32t32 49q6 16 10 40t6 58 1 53 0 59 0 43 0 43 0 59-1 53-6 58-10 40q-11 28-32 49t-50 32q-16 6-39 11t-58 5-54 2-59 0-42 0z m428-352q0-128-3-177-5-116-69-180t-179-69q-50-3-177-3t-177 3q-116 6-180 69t-69 180q-3 49-3 177t3 177q5 116 69 180t180 69q49 3 177 3t177-3q116-6 179-69t69-180q3-49 3-177z" horiz-adv-x="857.1" />

<glyph glyph-name="telegram" unicode="&#xf2c6;" d="M664 121l82 386q5 25-6 36t-29 3l-482-185q-16-6-22-14t-2-15 18-11l124-38 286 180q12 8 18 3 4-3-3-8l-231-210-9-127q13 0 25 13l60 58 125-93q36-20 46 22z m336 229q0-102-40-194t-106-160-160-106-194-40-194 40-160 106-106 160-40 194 40 194 106 160 160 106 194 40 194-40 160-106 106-160 40-194z" horiz-adv-x="1000" />

<glyph glyph-name="linkedin" unicode="&#xf318;" d="M204 698q0-40-29-68t-75-28q-44 0-72 28t-28 68q0 42 28 69t74 27 73-27 29-69z m-198-790l0 618 192 0 0-618-192 0z m306 420q0 86-4 198l166 0 10-86 4 0q60 100 190 100 100 0 161-67t61-199l0-366-192 0 0 342q0 134-98 134-70 0-98-72-6-12-6-48l0-356-194 0 0 420z" horiz-adv-x="900" />
</font>
</defs>
</svg>
